# Blender v2.78 (sub 0) OBJ File: ''
# www.blender.org
o Plane
v -1.000000 -1.000000 0.000000
v 1.000000 -1.000000 0.000000
v -1.000000 1.000000 0.000000
v 1.000000 1.000000 0.000000
v 2.000000 -1.000000 0.000000
v 2.000000 1.000000 0.000000
v 4.000000 -1.000000 0.000000
v 4.000000 1.000000 0.000000
vt 0.0001 0.0001
vt 0.4000 0.0001
vt 0.4000 0.4000
vt 0.6000 0.4000
vt 0.6000 0.0001
vt 0.9999 0.4000
vt 0.0001 0.4000
vt 0.9999 0.0001
s off
f 1/1 2/2 4/3
f 4/3 2/2 6/4
f 6/4 5/5 8/6
f 4/3 3/7 1/1
f 6/4 2/2 5/5
f 8/6 5/5 7/8
